Experiencia_guía
…
```
## Rows: 397 Columns: 2
## ── Column specification ────────────────────────────────────────────────────────
## Delimiter: ","
## chr (1): DATE
## dbl (1): IPG2211A2N
## 
## ℹ Use `spec()` to retrieve the full column specification for this data.
## ℹ Specify the column types or set `show_col_types = FALSE` to quiet this message.
```

```
## # A tibble: 397 × 2
##    DATE      IPG2211A2N
##    <chr>          <dbl>
##  1 1/1/1985        72.5
##  2 2/1/1985        70.7
##  3 3/1/1985        62.5
##  4 4/1/1985        57.5
##  5 5/1/1985        55.3
##  6 6/1/1985        58.1
##  7 7/1/1985        62.6
##  8 8/1/1985        63.2
##  9 9/1/1985        60.6
## 10 10/1/1985       56.3
## # … with 387 more rows
```
…
